\relax 
\catcode`"\active
\ifx\hyper@anchor\@undefined
\global \let \oldcontentsline\contentsline
\gdef \contentsline#1#2#3#4{\oldcontentsline{#1}{#2}{#3}}
\global \let \oldnewlabel\newlabel
\gdef \newlabel#1#2{\newlabelxx{#1}#2}
\gdef \newlabelxx#1#2#3#4#5#6{\oldnewlabel{#1}{{#2}{#3}}}
\AtEndDocument{\let \contentsline\oldcontentsline
\let \newlabel\oldnewlabel}
\else
\global \let \hyper@last\relax 
\fi

\select@language{portuguese}
\@writefile{toc}{\select@language{portuguese}}
\@writefile{lof}{\select@language{portuguese}}
\@writefile{lot}{\select@language{portuguese}}
\@writefile{toc}{\contentsline {section}{\numberline {1}Introdu\IeC {\c c}\IeC {\~a}o}{3}{section.1}}
\@writefile{toc}{\contentsline {subsection}{\numberline {1.1}Compress\IeC {\~a}o}{3}{subsection.1.1}}
\@writefile{toc}{\contentsline {subsection}{\numberline {1.2}Descompress\IeC {\~a}o}{3}{subsection.1.2}}
\@writefile{toc}{\contentsline {subsection}{\numberline {1.3}C\IeC {\'a}lculo de Entropia}{4}{subsection.1.3}}
\@writefile{toc}{\contentsline {subsection}{\numberline {1.4}Taxa de Compress\IeC {\~a}o}{4}{subsection.1.4}}
\bibcite{url}{1}
\bibcite{url}{2}
\bibcite{url}{3}
\bibcite{url}{4}
\bibcite{url}{5}
\bibcite{proceeding}{6}
\@writefile{toc}{\contentsline {section}{\numberline {2}Capacidade do Canal}{5}{section.2}}
