\select@language {portuguese}
\contentsline {section}{\numberline {1}Introdu\IeC {\c c}\IeC {\~a}o}{3}{section.1}
\contentsline {subsection}{\numberline {1.1}Compress\IeC {\~a}o}{3}{subsection.1.1}
\contentsline {subsection}{\numberline {1.2}Descompress\IeC {\~a}o}{3}{subsection.1.2}
\contentsline {subsection}{\numberline {1.3}C\IeC {\'a}lculo de Entropia}{4}{subsection.1.3}
\contentsline {subsection}{\numberline {1.4}Taxa de Compress\IeC {\~a}o}{4}{subsection.1.4}
\contentsline {section}{\numberline {2}Capacidade do Canal}{5}{section.2}
