\BOOKMARK [1][-]{section.1}{Introdu\347\343o}{}
\BOOKMARK [2][-]{subsection.1.1}{Compress\343o}{section.1}
\BOOKMARK [2][-]{subsection.1.2}{Descompress\343o}{section.1}
\BOOKMARK [2][-]{subsection.1.3}{C\341lculo de Entropia}{section.1}
\BOOKMARK [2][-]{subsection.1.4}{Taxa de Compress\343o}{section.1}
\BOOKMARK [1][-]{section.2}{Capacidade do Canal}{}
